[
  {
    "id": "007",
    "name": "James Bond",
    "hash": "123%%%jsBD&1962%",
    "salt": "123"
  },
  {
    "id": "42",
    "name": "Max",
    "hash": "%%%",
    "salt": ""
  },
  {
    "id": "19",
    "name": "Ksenia",
    "hash": "%%%",
    "salt": ""
  },
  {
    "id": "23",
    "name": "Vasya",
    "hash": "%%%",
    "salt": ""
  },
  {
    "id": "25",
    "name": "Anna",
    "hash": "%%%",
    "salt": ""
  },
  {
    "id": "22",
    "name": "Petr",
    "hash": "%%%",
    "salt": ""
  },
  {
    "id": "52",
    "name": "Alex",
    "hash": "%%%",
    "salt": ""
  },
  {
    "id": "53",
    "name": "John",
    "hash": "%%%",
    "salt": ""
  },
  {
    "id": "59",
    "name": "Margo",
    "hash": "%%%",
    "salt": ""
  }
]
