{
  "data": [
    {
      "short": "sdIw2",
      "url": "https://www.yandex.com/",
      "created": 1522147756662,
      "redirects": 0
    },
    {
      "short": "xsGds",
      "url": "https://www.google.com/",
      "created": 1522147766055,
      "redirects": 0
    },
    {
      "short": "AAbsQ",
      "url": "https://www.bing.com/",
      "created": 1522147772554,
      "redirects": 0
    }
  ]
}
